digraph G {
 rankdir=LR;
 node[shape=box];
 n1 [label="ACT[cx.hell.android.pdfview.OpenFileActivity]750"];
 n6 [label="DIALOG[android.app.AlertDialog]2959, alloc: <cx.hell.android.pdfview.OpenFileActivity: void errorMessage(java.lang.String)>"];
 n10 [label="OptionsMenu[cx.hell.android.pdfview.OpenFileActivity]739"];
 n13 [label="LAUNCHER_NODE[]3206"];
 n2 [label="ACT[cx.hell.android.pdfview.AboutPDFViewActivity]761"];
 n5 [label="DIALOG[android.app.Dialog]1182, alloc: <cx.hell.android.pdfview.OpenFileActivity: void showGotoPageDialog()>"];
 n7 [label="DIALOG[android.app.AlertDialog]2962, alloc: <cx.hell.android.lib.pagesview.PagesView$2: void run()>"];
 n12 [label="ContextMenu[VAR[r1]2511]3000"];
 n8 [label="DIALOG[android.app.AlertDialog]2961, alloc: <cx.hell.android.pdfview.OpenFileActivity$Finder$1: void run()>"];
 n3 [label="ACT[cx.hell.android.pdfview.Options]764"];
 n11 [label="OptionsMenu[cx.hell.android.pdfview.ChooseFileActivity]768"];
 n9 [label="DIALOG[android.app.Dialog]1333, alloc: <cx.hell.android.pdfview.OpenFileActivity: void showFindDialog()>"];
 n4 [label="ACT[cx.hell.android.pdfview.ChooseFileActivity]779"];
 n1 -> n4 [label="src: ACT[cx.hell.android.pdfview.OpenFileActivity]750\ntgt: ACT[cx.hell.android.pdfview.ChooseFileActivity]779\ntag: implicit_back\nevt: implicit_back_event\nwidget: ACT[cx.hell.android.pdfview.OpenFileActivity]750\nhandler: []\nstack: [[pop ACT[cx.hell.android.pdfview.OpenFileActivity]750]]\n"];
 n1 -> n1 [label="src: ACT[cx.hell.android.pdfview.OpenFileActivity]750\ntgt: ACT[cx.hell.android.pdfview.OpenFileActivity]750\ntag: implicit_power\nevt: implicit_power_event\nwidget: ACT[cx.hell.android.pdfview.OpenFileActivity]750\nhandler: []\nstack: []\n"];
 n1 -> n1 [label="src: ACT[cx.hell.android.pdfview.OpenFileActivity]750\ntgt: ACT[cx.hell.android.pdfview.OpenFileActivity]750\ntag: implicit_rotate\nevt: implicit_rotate_event\nwidget: ACT[cx.hell.android.pdfview.OpenFileActivity]750\nhandler: []\nstack: [[pop ACT[cx.hell.android.pdfview.OpenFileActivity]750], [push ACT[cx.hell.android.pdfview.OpenFileActivity]750]]\n"];
 n1 -> n1 [label="src: ACT[cx.hell.android.pdfview.OpenFileActivity]750\ntgt: ACT[cx.hell.android.pdfview.OpenFileActivity]750\ntag: implicit_home\nevt: implicit_home_event\nwidget: ACT[cx.hell.android.pdfview.OpenFileActivity]750\nhandler: []\nstack: []\n"];
 n1 -> n9 [label="src: ACT[cx.hell.android.pdfview.OpenFileActivity]750\ntgt: DIALOG[android.app.Dialog]1333, alloc: <cx.hell.android.pdfview.OpenFileActivity: void showFindDialog()>\ntag: show_dialog\nevt: press_key\nwidget: NEWVIEW[cx.hell.android.lib.pagesview.PagesView,*,903]906\nhandler: [<cx.hell.android.lib.pagesview.PagesView: boolean onKey(android.view.View,int,android.view.KeyEvent)>]\nstack: [[push DIALOG[android.app.Dialog]1333, alloc: <cx.hell.android.pdfview.OpenFileActivity: void showFindDialog()>]]\n"];
 n1 -> n8 [label="src: ACT[cx.hell.android.pdfview.OpenFileActivity]750\ntgt: DIALOG[android.app.AlertDialog]2961, alloc: <cx.hell.android.pdfview.OpenFileActivity$Finder$1: void run()>\ntag: show_dialog\nevt: click\nwidget: NEWVIEW[android.widget.Button,*,944]949\nhandler: [<cx.hell.android.pdfview.OpenFileActivity$1: void onClick(android.view.View)>]\nstack: [[push DIALOG[android.app.AlertDialog]2961, alloc: <cx.hell.android.pdfview.OpenFileActivity$Finder$1: void run()>]]\n"];
 n1 -> n8 [label="src: ACT[cx.hell.android.pdfview.OpenFileActivity]750\ntgt: DIALOG[android.app.AlertDialog]2961, alloc: <cx.hell.android.pdfview.OpenFileActivity$Finder$1: void run()>\ntag: show_dialog\nevt: click\nwidget: NEWVIEW[android.widget.Button,*,944]955\nhandler: [<cx.hell.android.pdfview.OpenFileActivity$2: void onClick(android.view.View)>]\nstack: [[push DIALOG[android.app.AlertDialog]2961, alloc: <cx.hell.android.pdfview.OpenFileActivity$Finder$1: void run()>]]\n"];
 n1 -> n1 [label="src: ACT[cx.hell.android.pdfview.OpenFileActivity]750\ntgt: ACT[cx.hell.android.pdfview.OpenFileActivity]750\ntag: cyclic_edge\nevt: click\nwidget: NEWVIEW[android.widget.Button,*,944]955\nhandler: [<cx.hell.android.pdfview.OpenFileActivity$2: void onClick(android.view.View)>]\nstack: []\n"];
 n1 -> n1 [label="src: ACT[cx.hell.android.pdfview.OpenFileActivity]750\ntgt: ACT[cx.hell.android.pdfview.OpenFileActivity]750\ntag: cyclic_edge\nevt: click\nwidget: NEWVIEW[android.widget.Button,*,944]949\nhandler: [<cx.hell.android.pdfview.OpenFileActivity$1: void onClick(android.view.View)>]\nstack: []\n"];
 n1 -> n1 [label="src: ACT[cx.hell.android.pdfview.OpenFileActivity]750\ntgt: ACT[cx.hell.android.pdfview.OpenFileActivity]750\ntag: cyclic_edge\nevt: click\nwidget: NEWVIEW[android.widget.ImageButton,*,973]1001\nhandler: [<cx.hell.android.pdfview.OpenFileActivity$6: void onClick(android.view.View)>]\nstack: []\n"];
 n1 -> n1 [label="src: ACT[cx.hell.android.pdfview.OpenFileActivity]750\ntgt: ACT[cx.hell.android.pdfview.OpenFileActivity]750\ntag: cyclic_edge\nevt: click\nwidget: NEWVIEW[android.widget.Button,*,944]961\nhandler: [<cx.hell.android.pdfview.OpenFileActivity$3: void onClick(android.view.View)>]\nstack: []\n"];
 n1 -> n1 [label="src: ACT[cx.hell.android.pdfview.OpenFileActivity]750\ntgt: ACT[cx.hell.android.pdfview.OpenFileActivity]750\ntag: cyclic_edge\nevt: press_key\nwidget: NEWVIEW[cx.hell.android.lib.pagesview.PagesView,*,903]906\nhandler: [<cx.hell.android.lib.pagesview.PagesView: boolean onKey(android.view.View,int,android.view.KeyEvent)>]\nstack: []\n"];
 n1 -> n1 [label="src: ACT[cx.hell.android.pdfview.OpenFileActivity]750\ntgt: ACT[cx.hell.android.pdfview.OpenFileActivity]750\ntag: cyclic_edge\nevt: click\nwidget: NEWVIEW[android.widget.ImageButton,*,973]977\nhandler: [<cx.hell.android.pdfview.OpenFileActivity$4: void onClick(android.view.View)>]\nstack: []\n"];
 n1 -> n1 [label="src: ACT[cx.hell.android.pdfview.OpenFileActivity]750\ntgt: ACT[cx.hell.android.pdfview.OpenFileActivity]750\ntag: cyclic_edge\nevt: touch\nwidget: NEWVIEW[cx.hell.android.lib.pagesview.PagesView,*,903]906\nhandler: [<cx.hell.android.lib.pagesview.PagesView: boolean onTouch(android.view.View,android.view.MotionEvent)>]\nstack: []\n"];
 n1 -> n1 [label="src: ACT[cx.hell.android.pdfview.OpenFileActivity]750\ntgt: ACT[cx.hell.android.pdfview.OpenFileActivity]750\ntag: cyclic_edge\nevt: click\nwidget: NEWVIEW[android.widget.ImageButton,*,973]989\nhandler: [<cx.hell.android.pdfview.OpenFileActivity$5: void onClick(android.view.View)>]\nstack: []\n"];
 n1 -> n10 [label="src: ACT[cx.hell.android.pdfview.OpenFileActivity]750\ntgt: OptionsMenu[cx.hell.android.pdfview.OpenFileActivity]739\ntag: open_options_menu\nevt: click\nwidget: OptionsMenu[cx.hell.android.pdfview.OpenFileActivity]739\nhandler: [<cx.hell.android.pdfview.OpenFileActivity: boolean onCreateOptionsMenu(android.view.Menu)>]\nstack: [[push OptionsMenu[cx.hell.android.pdfview.OpenFileActivity]739]]\n"];
 n6 -> n6 [label="src: DIALOG[android.app.AlertDialog]2959, alloc: <cx.hell.android.pdfview.OpenFileActivity: void errorMessage(java.lang.String)>\ntgt: DIALOG[android.app.AlertDialog]2959, alloc: <cx.hell.android.pdfview.OpenFileActivity: void errorMessage(java.lang.String)>\ntag: implicit_power\nevt: implicit_power_event\nwidget: DIALOG[android.app.AlertDialog]2959, alloc: <cx.hell.android.pdfview.OpenFileActivity: void errorMessage(java.lang.String)>\nhandler: []\nstack: []\n"];
 n6 -> n6 [label="src: DIALOG[android.app.AlertDialog]2959, alloc: <cx.hell.android.pdfview.OpenFileActivity: void errorMessage(java.lang.String)>\ntgt: DIALOG[android.app.AlertDialog]2959, alloc: <cx.hell.android.pdfview.OpenFileActivity: void errorMessage(java.lang.String)>\ntag: implicit_home\nevt: implicit_home_event\nwidget: DIALOG[android.app.AlertDialog]2959, alloc: <cx.hell.android.pdfview.OpenFileActivity: void errorMessage(java.lang.String)>\nhandler: []\nstack: []\n"];
 n6 -> n1 [label="src: DIALOG[android.app.AlertDialog]2959, alloc: <cx.hell.android.pdfview.OpenFileActivity: void errorMessage(java.lang.String)>\ntgt: ACT[cx.hell.android.pdfview.OpenFileActivity]750\ntag: implicit_back\nevt: implicit_back_event\nwidget: DIALOG[android.app.AlertDialog]2959, alloc: <cx.hell.android.pdfview.OpenFileActivity: void errorMessage(java.lang.String)>\nhandler: []\nstack: [[pop DIALOG[android.app.AlertDialog]2959, alloc: <cx.hell.android.pdfview.OpenFileActivity: void errorMessage(java.lang.String)>]]\n"];
 n6 -> n6 [label="src: DIALOG[android.app.AlertDialog]2959, alloc: <cx.hell.android.pdfview.OpenFileActivity: void errorMessage(java.lang.String)>\ntgt: DIALOG[android.app.AlertDialog]2959, alloc: <cx.hell.android.pdfview.OpenFileActivity: void errorMessage(java.lang.String)>\ntag: implicit_rotate\nevt: implicit_rotate_event\nwidget: DIALOG[android.app.AlertDialog]2959, alloc: <cx.hell.android.pdfview.OpenFileActivity: void errorMessage(java.lang.String)>\nhandler: []\nstack: [[pop DIALOG[android.app.AlertDialog]2959, alloc: <cx.hell.android.pdfview.OpenFileActivity: void errorMessage(java.lang.String)>], [pop DIALOG[android.app.AlertDialog]2959, alloc: <cx.hell.android.pdfview.OpenFileActivity: void errorMessage(java.lang.String)>], [push DIALOG[android.app.AlertDialog]2959, alloc: <cx.hell.android.pdfview.OpenFileActivity: void errorMessage(java.lang.String)>]]\n"];
 n10 -> n9 [label="src: OptionsMenu[cx.hell.android.pdfview.OpenFileActivity]739\ntgt: DIALOG[android.app.Dialog]1333, alloc: <cx.hell.android.pdfview.OpenFileActivity: void showFindDialog()>\ntag: show_dialog\nevt: click\nwidget: INFL[android.view.MenuItem,*,739]1319\nhandler: [<cx.hell.android.pdfview.OpenFileActivity: boolean onOptionsItemSelected(android.view.MenuItem)>]\nstack: [[pop OptionsMenu[cx.hell.android.pdfview.OpenFileActivity]739], [push DIALOG[android.app.Dialog]1333, alloc: <cx.hell.android.pdfview.OpenFileActivity: void showFindDialog()>]]\n"];
 n10 -> n1 [label="src: OptionsMenu[cx.hell.android.pdfview.OpenFileActivity]739\ntgt: ACT[cx.hell.android.pdfview.OpenFileActivity]750\ntag: implicit_home\nevt: implicit_home_event\nwidget: OptionsMenu[cx.hell.android.pdfview.OpenFileActivity]739\nhandler: []\nstack: [[pop OptionsMenu[cx.hell.android.pdfview.OpenFileActivity]739]]\n"];
 n10 -> n1 [label="src: OptionsMenu[cx.hell.android.pdfview.OpenFileActivity]739\ntgt: ACT[cx.hell.android.pdfview.OpenFileActivity]750\ntag: implicit_power\nevt: implicit_power_event\nwidget: OptionsMenu[cx.hell.android.pdfview.OpenFileActivity]739\nhandler: []\nstack: [[pop OptionsMenu[cx.hell.android.pdfview.OpenFileActivity]739]]\n"];
 n10 -> n5 [label="src: OptionsMenu[cx.hell.android.pdfview.OpenFileActivity]739\ntgt: DIALOG[android.app.Dialog]1182, alloc: <cx.hell.android.pdfview.OpenFileActivity: void showGotoPageDialog()>\ntag: show_dialog\nevt: click\nwidget: INFL[android.view.MenuItem,*,739]1295\nhandler: [<cx.hell.android.pdfview.OpenFileActivity: boolean onOptionsItemSelected(android.view.MenuItem)>]\nstack: [[pop OptionsMenu[cx.hell.android.pdfview.OpenFileActivity]739], [push DIALOG[android.app.Dialog]1182, alloc: <cx.hell.android.pdfview.OpenFileActivity: void showGotoPageDialog()>]]\n"];
 n10 -> n10 [label="src: OptionsMenu[cx.hell.android.pdfview.OpenFileActivity]739\ntgt: OptionsMenu[cx.hell.android.pdfview.OpenFileActivity]739\ntag: implicit_rotate\nevt: implicit_rotate_event\nwidget: OptionsMenu[cx.hell.android.pdfview.OpenFileActivity]739\nhandler: []\nstack: [[pop OptionsMenu[cx.hell.android.pdfview.OpenFileActivity]739], [pop ACT[cx.hell.android.pdfview.OpenFileActivity]750], [push ACT[cx.hell.android.pdfview.OpenFileActivity]750], [push OptionsMenu[cx.hell.android.pdfview.OpenFileActivity]739]]\n"];
 n10 -> n1 [label="src: OptionsMenu[cx.hell.android.pdfview.OpenFileActivity]739\ntgt: ACT[cx.hell.android.pdfview.OpenFileActivity]750\ntag: close_menu\nevt: click\nwidget: INFL[android.view.MenuItem,*,739]1299\nhandler: [<cx.hell.android.pdfview.OpenFileActivity: boolean onOptionsItemSelected(android.view.MenuItem)>]\nstack: [[pop OptionsMenu[cx.hell.android.pdfview.OpenFileActivity]739]]\n"];
 n10 -> n1 [label="src: OptionsMenu[cx.hell.android.pdfview.OpenFileActivity]739\ntgt: ACT[cx.hell.android.pdfview.OpenFileActivity]750\ntag: close_menu\nevt: click\nwidget: INFL[android.view.MenuItem,*,739]1307\nhandler: [<cx.hell.android.pdfview.OpenFileActivity: boolean onOptionsItemSelected(android.view.MenuItem)>]\nstack: [[pop OptionsMenu[cx.hell.android.pdfview.OpenFileActivity]739]]\n"];
 n10 -> n1 [label="src: OptionsMenu[cx.hell.android.pdfview.OpenFileActivity]739\ntgt: ACT[cx.hell.android.pdfview.OpenFileActivity]750\ntag: close_menu\nevt: click\nwidget: INFL[android.view.MenuItem,*,739]1303\nhandler: [<cx.hell.android.pdfview.OpenFileActivity: boolean onOptionsItemSelected(android.view.MenuItem)>]\nstack: [[pop OptionsMenu[cx.hell.android.pdfview.OpenFileActivity]739]]\n"];
 n10 -> n4 [label="src: OptionsMenu[cx.hell.android.pdfview.OpenFileActivity]739\ntgt: ACT[cx.hell.android.pdfview.ChooseFileActivity]779\ntag: start_activity\nevt: click\nwidget: INFL[android.view.MenuItem,*,739]1311\nhandler: [<cx.hell.android.pdfview.OpenFileActivity: boolean onOptionsItemSelected(android.view.MenuItem)>]\nstack: [[pop OptionsMenu[cx.hell.android.pdfview.OpenFileActivity]739], [push ACT[cx.hell.android.pdfview.ChooseFileActivity]779]]\n"];
 n10 -> n1 [label="src: OptionsMenu[cx.hell.android.pdfview.OpenFileActivity]739\ntgt: ACT[cx.hell.android.pdfview.OpenFileActivity]750\ntag: implicit_back\nevt: implicit_back_event\nwidget: OptionsMenu[cx.hell.android.pdfview.OpenFileActivity]739\nhandler: []\nstack: [[pop OptionsMenu[cx.hell.android.pdfview.OpenFileActivity]739]]\n"];
 n10 -> n3 [label="src: OptionsMenu[cx.hell.android.pdfview.OpenFileActivity]739\ntgt: ACT[cx.hell.android.pdfview.Options]764\ntag: start_activity\nevt: click\nwidget: INFL[android.view.MenuItem,*,739]1315\nhandler: [<cx.hell.android.pdfview.OpenFileActivity: boolean onOptionsItemSelected(android.view.MenuItem)>]\nstack: [[pop OptionsMenu[cx.hell.android.pdfview.OpenFileActivity]739], [push ACT[cx.hell.android.pdfview.Options]764]]\n"];
 n10 -> n2 [label="src: OptionsMenu[cx.hell.android.pdfview.OpenFileActivity]739\ntgt: ACT[cx.hell.android.pdfview.AboutPDFViewActivity]761\ntag: start_activity\nevt: click\nwidget: INFL[android.view.MenuItem,*,739]1323\nhandler: [<cx.hell.android.pdfview.OpenFileActivity: boolean onOptionsItemSelected(android.view.MenuItem)>]\nstack: [[pop OptionsMenu[cx.hell.android.pdfview.OpenFileActivity]739], [push ACT[cx.hell.android.pdfview.AboutPDFViewActivity]761]]\n"];
 n13 -> n4 [label="src: LAUNCHER_NODE[]3206\ntgt: ACT[cx.hell.android.pdfview.ChooseFileActivity]779\ntag: implicit_launch\nevt: implicit_launch_event\nwidget: LAUNCHER_NODE[]3206\nhandler: []\nstack: [[push ACT[cx.hell.android.pdfview.ChooseFileActivity]779]]\n"];
 n2 -> n2 [label="src: ACT[cx.hell.android.pdfview.AboutPDFViewActivity]761\ntgt: ACT[cx.hell.android.pdfview.AboutPDFViewActivity]761\ntag: implicit_power\nevt: implicit_power_event\nwidget: ACT[cx.hell.android.pdfview.AboutPDFViewActivity]761\nhandler: []\nstack: []\n"];
 n2 -> n4 [label="src: ACT[cx.hell.android.pdfview.AboutPDFViewActivity]761\ntgt: ACT[cx.hell.android.pdfview.ChooseFileActivity]779\ntag: implicit_back\nevt: implicit_back_event\nwidget: ACT[cx.hell.android.pdfview.AboutPDFViewActivity]761\nhandler: []\nstack: [[pop ACT[cx.hell.android.pdfview.AboutPDFViewActivity]761]]\n"];
 n2 -> n2 [label="src: ACT[cx.hell.android.pdfview.AboutPDFViewActivity]761\ntgt: ACT[cx.hell.android.pdfview.AboutPDFViewActivity]761\ntag: implicit_rotate\nevt: implicit_rotate_event\nwidget: ACT[cx.hell.android.pdfview.AboutPDFViewActivity]761\nhandler: []\nstack: [[pop ACT[cx.hell.android.pdfview.AboutPDFViewActivity]761], [push ACT[cx.hell.android.pdfview.AboutPDFViewActivity]761]]\n"];
 n2 -> n2 [label="src: ACT[cx.hell.android.pdfview.AboutPDFViewActivity]761\ntgt: ACT[cx.hell.android.pdfview.AboutPDFViewActivity]761\ntag: implicit_home\nevt: implicit_home_event\nwidget: ACT[cx.hell.android.pdfview.AboutPDFViewActivity]761\nhandler: []\nstack: []\n"];
 n2 -> n1 [label="src: ACT[cx.hell.android.pdfview.AboutPDFViewActivity]761\ntgt: ACT[cx.hell.android.pdfview.OpenFileActivity]750\ntag: implicit_back\nevt: implicit_back_event\nwidget: ACT[cx.hell.android.pdfview.AboutPDFViewActivity]761\nhandler: []\nstack: [[pop ACT[cx.hell.android.pdfview.AboutPDFViewActivity]761]]\n"];
 n5 -> n1 [label="src: DIALOG[android.app.Dialog]1182, alloc: <cx.hell.android.pdfview.OpenFileActivity: void showGotoPageDialog()>\ntgt: ACT[cx.hell.android.pdfview.OpenFileActivity]750\ntag: implicit_back\nevt: implicit_back_event\nwidget: DIALOG[android.app.Dialog]1182, alloc: <cx.hell.android.pdfview.OpenFileActivity: void showGotoPageDialog()>\nhandler: []\nstack: [[pop DIALOG[android.app.Dialog]1182, alloc: <cx.hell.android.pdfview.OpenFileActivity: void showGotoPageDialog()>]]\n"];
 n5 -> n5 [label="src: DIALOG[android.app.Dialog]1182, alloc: <cx.hell.android.pdfview.OpenFileActivity: void showGotoPageDialog()>\ntgt: DIALOG[android.app.Dialog]1182, alloc: <cx.hell.android.pdfview.OpenFileActivity: void showGotoPageDialog()>\ntag: implicit_home\nevt: implicit_home_event\nwidget: DIALOG[android.app.Dialog]1182, alloc: <cx.hell.android.pdfview.OpenFileActivity: void showGotoPageDialog()>\nhandler: []\nstack: []\n"];
 n5 -> n5 [label="src: DIALOG[android.app.Dialog]1182, alloc: <cx.hell.android.pdfview.OpenFileActivity: void showGotoPageDialog()>\ntgt: DIALOG[android.app.Dialog]1182, alloc: <cx.hell.android.pdfview.OpenFileActivity: void showGotoPageDialog()>\ntag: implicit_power\nevt: implicit_power_event\nwidget: DIALOG[android.app.Dialog]1182, alloc: <cx.hell.android.pdfview.OpenFileActivity: void showGotoPageDialog()>\nhandler: []\nstack: []\n"];
 n5 -> n6 [label="src: DIALOG[android.app.Dialog]1182, alloc: <cx.hell.android.pdfview.OpenFileActivity: void showGotoPageDialog()>\ntgt: DIALOG[android.app.AlertDialog]2959, alloc: <cx.hell.android.pdfview.OpenFileActivity: void errorMessage(java.lang.String)>\ntag: show_dialog\nevt: click\nwidget: NEWVIEW[android.widget.Button,*,1185]1204\nhandler: [<cx.hell.android.pdfview.OpenFileActivity$7: void onClick(android.view.View)>]\nstack: [[pop DIALOG[android.app.Dialog]1182, alloc: <cx.hell.android.pdfview.OpenFileActivity: void showGotoPageDialog()>], [push DIALOG[android.app.AlertDialog]2959, alloc: <cx.hell.android.pdfview.OpenFileActivity: void errorMessage(java.lang.String)>]]\n"];
 n5 -> n1 [label="src: DIALOG[android.app.Dialog]1182, alloc: <cx.hell.android.pdfview.OpenFileActivity: void showGotoPageDialog()>\ntgt: ACT[cx.hell.android.pdfview.OpenFileActivity]750\ntag: dismiss_dialog\nevt: click\nwidget: NEWVIEW[android.widget.Button,*,1185]1204\nhandler: [<cx.hell.android.pdfview.OpenFileActivity$7: void onClick(android.view.View)>]\nstack: [[pop DIALOG[android.app.Dialog]1182, alloc: <cx.hell.android.pdfview.OpenFileActivity: void showGotoPageDialog()>]]\n"];
 n5 -> n1 [label="src: DIALOG[android.app.Dialog]1182, alloc: <cx.hell.android.pdfview.OpenFileActivity: void showGotoPageDialog()>\ntgt: ACT[cx.hell.android.pdfview.OpenFileActivity]750\ntag: dismiss_dialog\nevt: click\nwidget: NEWVIEW[android.widget.Button,*,1185]1225\nhandler: [<cx.hell.android.pdfview.OpenFileActivity$9: void onClick(android.view.View)>]\nstack: [[pop DIALOG[android.app.Dialog]1182, alloc: <cx.hell.android.pdfview.OpenFileActivity: void showGotoPageDialog()>]]\n"];
 n5 -> n1 [label="src: DIALOG[android.app.Dialog]1182, alloc: <cx.hell.android.pdfview.OpenFileActivity: void showGotoPageDialog()>\ntgt: ACT[cx.hell.android.pdfview.OpenFileActivity]750\ntag: dismiss_dialog\nevt: click\nwidget: NEWVIEW[android.widget.Button,*,1185]1214\nhandler: [<cx.hell.android.pdfview.OpenFileActivity$8: void onClick(android.view.View)>]\nstack: [[pop DIALOG[android.app.Dialog]1182, alloc: <cx.hell.android.pdfview.OpenFileActivity: void showGotoPageDialog()>]]\n"];
 n5 -> n5 [label="src: DIALOG[android.app.Dialog]1182, alloc: <cx.hell.android.pdfview.OpenFileActivity: void showGotoPageDialog()>\ntgt: DIALOG[android.app.Dialog]1182, alloc: <cx.hell.android.pdfview.OpenFileActivity: void showGotoPageDialog()>\ntag: implicit_rotate\nevt: implicit_rotate_event\nwidget: DIALOG[android.app.Dialog]1182, alloc: <cx.hell.android.pdfview.OpenFileActivity: void showGotoPageDialog()>\nhandler: []\nstack: [[pop DIALOG[android.app.Dialog]1182, alloc: <cx.hell.android.pdfview.OpenFileActivity: void showGotoPageDialog()>], [pop DIALOG[android.app.Dialog]1182, alloc: <cx.hell.android.pdfview.OpenFileActivity: void showGotoPageDialog()>], [push DIALOG[android.app.Dialog]1182, alloc: <cx.hell.android.pdfview.OpenFileActivity: void showGotoPageDialog()>]]\n"];
 n12 -> n12 [label="src: ContextMenu[VAR[r1]2511]3000\ntgt: ContextMenu[VAR[r1]2511]3000\ntag: implicit_power\nevt: implicit_power_event\nwidget: ContextMenu[VAR[r1]2511]3000\nhandler: []\nstack: []\n"];
 n12 -> n4 [label="src: ContextMenu[VAR[r1]2511]3000\ntgt: ACT[cx.hell.android.pdfview.ChooseFileActivity]779\ntag: implicit_rotate\nevt: implicit_rotate_event\nwidget: ContextMenu[VAR[r1]2511]3000\nhandler: []\nstack: [[pop ContextMenu[VAR[r1]2511]3000], [pop ACT[cx.hell.android.pdfview.ChooseFileActivity]779], [push ACT[cx.hell.android.pdfview.ChooseFileActivity]779]]\n"];
 n12 -> n4 [label="src: ContextMenu[VAR[r1]2511]3000\ntgt: ACT[cx.hell.android.pdfview.ChooseFileActivity]779\ntag: close_menu\nevt: click\nwidget: INFL[android.view.MenuItem,*,3000]2509\nhandler: [<cx.hell.android.pdfview.ChooseFileActivity: boolean onContextItemSelected(android.view.MenuItem)>]\nstack: [[pop ContextMenu[VAR[r1]2511]3000]]\n"];
 n12 -> n4 [label="src: ContextMenu[VAR[r1]2511]3000\ntgt: ACT[cx.hell.android.pdfview.ChooseFileActivity]779\ntag: implicit_back\nevt: implicit_back_event\nwidget: ContextMenu[VAR[r1]2511]3000\nhandler: []\nstack: [[pop ContextMenu[VAR[r1]2511]3000]]\n"];
 n12 -> n4 [label="src: ContextMenu[VAR[r1]2511]3000\ntgt: ACT[cx.hell.android.pdfview.ChooseFileActivity]779\ntag: implicit_home\nevt: implicit_home_event\nwidget: ContextMenu[VAR[r1]2511]3000\nhandler: []\nstack: []\n"];
 n8 -> n1 [label="src: DIALOG[android.app.AlertDialog]2961, alloc: <cx.hell.android.pdfview.OpenFileActivity$Finder$1: void run()>\ntgt: ACT[cx.hell.android.pdfview.OpenFileActivity]750\ntag: implicit_back\nevt: implicit_back_event\nwidget: DIALOG[android.app.AlertDialog]2961, alloc: <cx.hell.android.pdfview.OpenFileActivity$Finder$1: void run()>\nhandler: []\nstack: [[pop DIALOG[android.app.AlertDialog]2961, alloc: <cx.hell.android.pdfview.OpenFileActivity$Finder$1: void run()>]]\n"];
 n8 -> n8 [label="src: DIALOG[android.app.AlertDialog]2961, alloc: <cx.hell.android.pdfview.OpenFileActivity$Finder$1: void run()>\ntgt: DIALOG[android.app.AlertDialog]2961, alloc: <cx.hell.android.pdfview.OpenFileActivity$Finder$1: void run()>\ntag: cyclic_edge\nevt: dialog_cancel\nwidget: DIALOG[android.app.AlertDialog]2961, alloc: <cx.hell.android.pdfview.OpenFileActivity$Finder$1: void run()>\nhandler: [<cx.hell.android.pdfview.OpenFileActivity$Finder: void onCancel(android.content.DialogInterface)>]\nstack: []\n"];
 n8 -> n8 [label="src: DIALOG[android.app.AlertDialog]2961, alloc: <cx.hell.android.pdfview.OpenFileActivity$Finder$1: void run()>\ntgt: DIALOG[android.app.AlertDialog]2961, alloc: <cx.hell.android.pdfview.OpenFileActivity$Finder$1: void run()>\ntag: implicit_home\nevt: implicit_home_event\nwidget: DIALOG[android.app.AlertDialog]2961, alloc: <cx.hell.android.pdfview.OpenFileActivity$Finder$1: void run()>\nhandler: []\nstack: []\n"];
 n8 -> n8 [label="src: DIALOG[android.app.AlertDialog]2961, alloc: <cx.hell.android.pdfview.OpenFileActivity$Finder$1: void run()>\ntgt: DIALOG[android.app.AlertDialog]2961, alloc: <cx.hell.android.pdfview.OpenFileActivity$Finder$1: void run()>\ntag: implicit_power\nevt: implicit_power_event\nwidget: DIALOG[android.app.AlertDialog]2961, alloc: <cx.hell.android.pdfview.OpenFileActivity$Finder$1: void run()>\nhandler: []\nstack: []\n"];
 n8 -> n8 [label="src: DIALOG[android.app.AlertDialog]2961, alloc: <cx.hell.android.pdfview.OpenFileActivity$Finder$1: void run()>\ntgt: DIALOG[android.app.AlertDialog]2961, alloc: <cx.hell.android.pdfview.OpenFileActivity$Finder$1: void run()>\ntag: implicit_rotate\nevt: implicit_rotate_event\nwidget: DIALOG[android.app.AlertDialog]2961, alloc: <cx.hell.android.pdfview.OpenFileActivity$Finder$1: void run()>\nhandler: []\nstack: [[pop DIALOG[android.app.AlertDialog]2961, alloc: <cx.hell.android.pdfview.OpenFileActivity$Finder$1: void run()>], [pop DIALOG[android.app.AlertDialog]2961, alloc: <cx.hell.android.pdfview.OpenFileActivity$Finder$1: void run()>], [push DIALOG[android.app.AlertDialog]2961, alloc: <cx.hell.android.pdfview.OpenFileActivity$Finder$1: void run()>]]\n"];
 n8 -> n1 [label="src: DIALOG[android.app.AlertDialog]2961, alloc: <cx.hell.android.pdfview.OpenFileActivity$Finder$1: void run()>\ntgt: ACT[cx.hell.android.pdfview.OpenFileActivity]750\ntag: dismiss_dialog\nevt: click\nwidget: INFL[android.widget.Button,WID[16908314|button2]396,3065]3072\nhandler: [<FakeName_18: void onClick(android.view.View)>]\nstack: [[pop DIALOG[android.app.AlertDialog]2961, alloc: <cx.hell.android.pdfview.OpenFileActivity$Finder$1: void run()>]]\n"];
 n3 -> n4 [label="src: ACT[cx.hell.android.pdfview.Options]764\ntgt: ACT[cx.hell.android.pdfview.ChooseFileActivity]779\ntag: implicit_back\nevt: implicit_back_event\nwidget: ACT[cx.hell.android.pdfview.Options]764\nhandler: []\nstack: [[pop ACT[cx.hell.android.pdfview.Options]764]]\n"];
 n3 -> n3 [label="src: ACT[cx.hell.android.pdfview.Options]764\ntgt: ACT[cx.hell.android.pdfview.Options]764\ntag: implicit_rotate\nevt: implicit_rotate_event\nwidget: ACT[cx.hell.android.pdfview.Options]764\nhandler: []\nstack: [[pop ACT[cx.hell.android.pdfview.Options]764], [push ACT[cx.hell.android.pdfview.Options]764]]\n"];
 n3 -> n1 [label="src: ACT[cx.hell.android.pdfview.Options]764\ntgt: ACT[cx.hell.android.pdfview.OpenFileActivity]750\ntag: implicit_back\nevt: implicit_back_event\nwidget: ACT[cx.hell.android.pdfview.Options]764\nhandler: []\nstack: [[pop ACT[cx.hell.android.pdfview.Options]764]]\n"];
 n3 -> n3 [label="src: ACT[cx.hell.android.pdfview.Options]764\ntgt: ACT[cx.hell.android.pdfview.Options]764\ntag: implicit_power\nevt: implicit_power_event\nwidget: ACT[cx.hell.android.pdfview.Options]764\nhandler: []\nstack: []\n"];
 n3 -> n3 [label="src: ACT[cx.hell.android.pdfview.Options]764\ntgt: ACT[cx.hell.android.pdfview.Options]764\ntag: implicit_home\nevt: implicit_home_event\nwidget: ACT[cx.hell.android.pdfview.Options]764\nhandler: []\nstack: []\n"];
 n11 -> n4 [label="src: OptionsMenu[cx.hell.android.pdfview.ChooseFileActivity]768\ntgt: ACT[cx.hell.android.pdfview.ChooseFileActivity]779\ntag: close_menu\nevt: click\nwidget: INFL[android.view.MenuItem,*,768]2471\nhandler: [<cx.hell.android.pdfview.ChooseFileActivity: boolean onOptionsItemSelected(android.view.MenuItem)>]\nstack: [[pop OptionsMenu[cx.hell.android.pdfview.ChooseFileActivity]768]]\n"];
 n11 -> n4 [label="src: OptionsMenu[cx.hell.android.pdfview.ChooseFileActivity]768\ntgt: ACT[cx.hell.android.pdfview.ChooseFileActivity]779\ntag: implicit_home\nevt: implicit_home_event\nwidget: OptionsMenu[cx.hell.android.pdfview.ChooseFileActivity]768\nhandler: []\nstack: [[pop OptionsMenu[cx.hell.android.pdfview.ChooseFileActivity]768]]\n"];
 n11 -> n3 [label="src: OptionsMenu[cx.hell.android.pdfview.ChooseFileActivity]768\ntgt: ACT[cx.hell.android.pdfview.Options]764\ntag: start_activity\nevt: click\nwidget: INFL[android.view.MenuItem,*,768]2475\nhandler: [<cx.hell.android.pdfview.ChooseFileActivity: boolean onOptionsItemSelected(android.view.MenuItem)>]\nstack: [[pop OptionsMenu[cx.hell.android.pdfview.ChooseFileActivity]768], [push ACT[cx.hell.android.pdfview.Options]764]]\n"];
 n11 -> n4 [label="src: OptionsMenu[cx.hell.android.pdfview.ChooseFileActivity]768\ntgt: ACT[cx.hell.android.pdfview.ChooseFileActivity]779\ntag: implicit_back\nevt: implicit_back_event\nwidget: OptionsMenu[cx.hell.android.pdfview.ChooseFileActivity]768\nhandler: []\nstack: [[pop OptionsMenu[cx.hell.android.pdfview.ChooseFileActivity]768]]\n"];
 n11 -> n4 [label="src: OptionsMenu[cx.hell.android.pdfview.ChooseFileActivity]768\ntgt: ACT[cx.hell.android.pdfview.ChooseFileActivity]779\ntag: implicit_power\nevt: implicit_power_event\nwidget: OptionsMenu[cx.hell.android.pdfview.ChooseFileActivity]768\nhandler: []\nstack: [[pop OptionsMenu[cx.hell.android.pdfview.ChooseFileActivity]768]]\n"];
 n11 -> n2 [label="src: OptionsMenu[cx.hell.android.pdfview.ChooseFileActivity]768\ntgt: ACT[cx.hell.android.pdfview.AboutPDFViewActivity]761\ntag: start_activity\nevt: click\nwidget: INFL[android.view.MenuItem,*,768]2479\nhandler: [<cx.hell.android.pdfview.ChooseFileActivity: boolean onOptionsItemSelected(android.view.MenuItem)>]\nstack: [[pop OptionsMenu[cx.hell.android.pdfview.ChooseFileActivity]768], [push ACT[cx.hell.android.pdfview.AboutPDFViewActivity]761]]\n"];
 n11 -> n11 [label="src: OptionsMenu[cx.hell.android.pdfview.ChooseFileActivity]768\ntgt: OptionsMenu[cx.hell.android.pdfview.ChooseFileActivity]768\ntag: implicit_rotate\nevt: implicit_rotate_event\nwidget: OptionsMenu[cx.hell.android.pdfview.ChooseFileActivity]768\nhandler: []\nstack: [[pop OptionsMenu[cx.hell.android.pdfview.ChooseFileActivity]768], [pop ACT[cx.hell.android.pdfview.ChooseFileActivity]779], [push ACT[cx.hell.android.pdfview.ChooseFileActivity]779], [push OptionsMenu[cx.hell.android.pdfview.ChooseFileActivity]768]]\n"];
 n9 -> n1 [label="src: DIALOG[android.app.Dialog]1333, alloc: <cx.hell.android.pdfview.OpenFileActivity: void showFindDialog()>\ntgt: ACT[cx.hell.android.pdfview.OpenFileActivity]750\ntag: implicit_back\nevt: implicit_back_event\nwidget: DIALOG[android.app.Dialog]1333, alloc: <cx.hell.android.pdfview.OpenFileActivity: void showFindDialog()>\nhandler: []\nstack: [[pop DIALOG[android.app.Dialog]1333, alloc: <cx.hell.android.pdfview.OpenFileActivity: void showFindDialog()>]]\n"];
 n9 -> n8 [label="src: DIALOG[android.app.Dialog]1333, alloc: <cx.hell.android.pdfview.OpenFileActivity: void showFindDialog()>\ntgt: DIALOG[android.app.AlertDialog]2961, alloc: <cx.hell.android.pdfview.OpenFileActivity$Finder$1: void run()>\ntag: show_dialog\nevt: click\nwidget: NEWVIEW[android.widget.Button,*,1336]1345\nhandler: [<cx.hell.android.pdfview.OpenFileActivity$10: void onClick(android.view.View)>]\nstack: [[pop DIALOG[android.app.Dialog]1333, alloc: <cx.hell.android.pdfview.OpenFileActivity: void showFindDialog()>], [push DIALOG[android.app.AlertDialog]2961, alloc: <cx.hell.android.pdfview.OpenFileActivity$Finder$1: void run()>]]\n"];
 n9 -> n9 [label="src: DIALOG[android.app.Dialog]1333, alloc: <cx.hell.android.pdfview.OpenFileActivity: void showFindDialog()>\ntgt: DIALOG[android.app.Dialog]1333, alloc: <cx.hell.android.pdfview.OpenFileActivity: void showFindDialog()>\ntag: implicit_rotate\nevt: implicit_rotate_event\nwidget: DIALOG[android.app.Dialog]1333, alloc: <cx.hell.android.pdfview.OpenFileActivity: void showFindDialog()>\nhandler: []\nstack: [[pop DIALOG[android.app.Dialog]1333, alloc: <cx.hell.android.pdfview.OpenFileActivity: void showFindDialog()>], [pop DIALOG[android.app.Dialog]1333, alloc: <cx.hell.android.pdfview.OpenFileActivity: void showFindDialog()>], [push DIALOG[android.app.Dialog]1333, alloc: <cx.hell.android.pdfview.OpenFileActivity: void showFindDialog()>]]\n"];
 n9 -> n9 [label="src: DIALOG[android.app.Dialog]1333, alloc: <cx.hell.android.pdfview.OpenFileActivity: void showFindDialog()>\ntgt: DIALOG[android.app.Dialog]1333, alloc: <cx.hell.android.pdfview.OpenFileActivity: void showFindDialog()>\ntag: implicit_power\nevt: implicit_power_event\nwidget: DIALOG[android.app.Dialog]1333, alloc: <cx.hell.android.pdfview.OpenFileActivity: void showFindDialog()>\nhandler: []\nstack: []\n"];
 n9 -> n1 [label="src: DIALOG[android.app.Dialog]1333, alloc: <cx.hell.android.pdfview.OpenFileActivity: void showFindDialog()>\ntgt: ACT[cx.hell.android.pdfview.OpenFileActivity]750\ntag: dismiss_dialog\nevt: click\nwidget: NEWVIEW[android.widget.Button,*,1336]1345\nhandler: [<cx.hell.android.pdfview.OpenFileActivity$10: void onClick(android.view.View)>]\nstack: [[pop DIALOG[android.app.Dialog]1333, alloc: <cx.hell.android.pdfview.OpenFileActivity: void showFindDialog()>]]\n"];
 n9 -> n9 [label="src: DIALOG[android.app.Dialog]1333, alloc: <cx.hell.android.pdfview.OpenFileActivity: void showFindDialog()>\ntgt: DIALOG[android.app.Dialog]1333, alloc: <cx.hell.android.pdfview.OpenFileActivity: void showFindDialog()>\ntag: implicit_home\nevt: implicit_home_event\nwidget: DIALOG[android.app.Dialog]1333, alloc: <cx.hell.android.pdfview.OpenFileActivity: void showFindDialog()>\nhandler: []\nstack: []\n"];
 n4 -> n1 [label="src: ACT[cx.hell.android.pdfview.ChooseFileActivity]779\ntgt: ACT[cx.hell.android.pdfview.OpenFileActivity]750\ntag: implicit_back\nevt: implicit_back_event\nwidget: ACT[cx.hell.android.pdfview.ChooseFileActivity]779\nhandler: []\nstack: [[pop ACT[cx.hell.android.pdfview.ChooseFileActivity]779]]\n"];
 n4 -> n11 [label="src: ACT[cx.hell.android.pdfview.ChooseFileActivity]779\ntgt: OptionsMenu[cx.hell.android.pdfview.ChooseFileActivity]768\ntag: open_options_menu\nevt: click\nwidget: OptionsMenu[cx.hell.android.pdfview.ChooseFileActivity]768\nhandler: [<cx.hell.android.pdfview.ChooseFileActivity: boolean onCreateOptionsMenu(android.view.Menu)>]\nstack: [[push OptionsMenu[cx.hell.android.pdfview.ChooseFileActivity]768]]\n"];
 n4 -> n1 [label="src: ACT[cx.hell.android.pdfview.ChooseFileActivity]779\ntgt: ACT[cx.hell.android.pdfview.OpenFileActivity]750\ntag: start_activity\nevt: item_click\nwidget: INFL[android.widget.ListView,WID[2131296259|files]645,3053]3055\nhandler: [<cx.hell.android.pdfview.ChooseFileActivity: void onItemClick(android.widget.AdapterView,android.view.View,int,long)>]\nstack: [[push ACT[cx.hell.android.pdfview.OpenFileActivity]750]]\n"];
 n4 -> n4 [label="src: ACT[cx.hell.android.pdfview.ChooseFileActivity]779\ntgt: ACT[cx.hell.android.pdfview.ChooseFileActivity]779\ntag: implicit_home\nevt: implicit_home_event\nwidget: ACT[cx.hell.android.pdfview.ChooseFileActivity]779\nhandler: []\nstack: []\n"];
 n4 -> n4 [label="src: ACT[cx.hell.android.pdfview.ChooseFileActivity]779\ntgt: ACT[cx.hell.android.pdfview.ChooseFileActivity]779\ntag: implicit_power\nevt: implicit_power_event\nwidget: ACT[cx.hell.android.pdfview.ChooseFileActivity]779\nhandler: []\nstack: []\n"];
 n4 -> n4 [label="src: ACT[cx.hell.android.pdfview.ChooseFileActivity]779\ntgt: ACT[cx.hell.android.pdfview.ChooseFileActivity]779\ntag: implicit_rotate\nevt: implicit_rotate_event\nwidget: ACT[cx.hell.android.pdfview.ChooseFileActivity]779\nhandler: []\nstack: [[pop ACT[cx.hell.android.pdfview.ChooseFileActivity]779], [push ACT[cx.hell.android.pdfview.ChooseFileActivity]779]]\n"];
 n4 -> n13 [label="src: ACT[cx.hell.android.pdfview.ChooseFileActivity]779\ntgt: LAUNCHER_NODE[]3206\ntag: implicit_back\nevt: implicit_back_event\nwidget: ACT[cx.hell.android.pdfview.ChooseFileActivity]779\nhandler: []\nstack: [[pop ACT[cx.hell.android.pdfview.ChooseFileActivity]779]]\n"];
 n4 -> n4 [label="src: ACT[cx.hell.android.pdfview.ChooseFileActivity]779\ntgt: ACT[cx.hell.android.pdfview.ChooseFileActivity]779\ntag: cyclic_edge\nevt: item_click\nwidget: INFL[android.widget.ListView,WID[2131296259|files]645,3053]3055\nhandler: [<cx.hell.android.pdfview.ChooseFileActivity: void onItemClick(android.widget.AdapterView,android.view.View,int,long)>]\nstack: []\n"];
 n4 -> n12 [label="src: ACT[cx.hell.android.pdfview.ChooseFileActivity]779\ntgt: ContextMenu[VAR[r1]2511]3000\ntag: open_context_menu\nevt: long_click\nwidget: INFL[android.widget.ListView,WID[2131296259|files]645,3053]3055\nhandler: [<cx.hell.android.pdfview.ChooseFileActivity: void onCreateContextMenu(android.view.ContextMenu,android.view.View,android.view.ContextMenu$ContextMenuInfo)>]\nstack: [[push ContextMenu[VAR[r1]2511]3000]]\n"];
}